{
  "name": "database",
  "$schema": "../node_modules/nx/schemas/project-schema.json",
  "sourceRoot": "database/src",
  "projectType": "library",
  "targets": {
    "migrate": {
      "executor": "nx:run-commands",
      "options": {
        "command": "ts-node database/scripts/migrate.ts up"
      }
    },
    "rollback": {
      "executor": "nx:run-commands",
      "options": {
        "command": "ts-node database/scripts/migrate.ts down"
      }
    },
    "generate": {
      "executor": "nx:run-commands",
      "options": {
        "command": "ts-node database/scripts/generate.ts"
      }
    },
    "pending": {
      "executor": "nx:run-commands",
      "options": {
        "command": "ts-node database/scripts/migrate.ts pending"
      }
    },
    "complete": {
      "executor": "nx:run-commands",
      "options": {
        "command": "ts-node database/scripts/migrate.ts executed"
      }
    }
  },
  "tags": []
}
