{
  "name": "@cashboard/nest",
  "$schema": "../../node_modules/nx/schemas/project-schema.json",
  "sourceRoot": "libs/nest/src",
  "projectType": "library",
  "targets": {
    "build": {
      "executor": "@nx/js:tsc",
      "outputs": ["{options.outputPath}"],
      "options": {
        "outputPath": "dist/libs/nest",
        "tsConfig": "libs/nest/tsconfig.lib.json",
        "packageJson": "libs/nest/package.json",
        "main": "libs/nest/src/index.ts",
        "assets": ["libs/nest/*.md"],
        "additionalEntryPoints": [
          "libs/nest/src/database/index.ts",
          "libs/nest/src/sequelize/index.ts"
        ],
        "generateExportsField": true
      }
    },
    "lint": {
      "executor": "@nx/linter:eslint",
      "outputs": ["{options.outputFile}"],
      "options": {
        "lintFilePatterns": ["libs/nest/**/*.ts", "libs/nest/package.json"]
      }
    },
    "test": {
      "executor": "@nx/jest:jest",
      "outputs": ["{workspaceRoot}/coverage/{projectRoot}"],
      "options": {
        "jestConfig": "libs/nest/jest.config.ts",
        "passWithNoTests": true
      },
      "configurations": {
        "ci": {
          "ci": true,
          "codeCoverage": true
        }
      }
    }
  },
  "tags": []
}
